[
	{
		"type":"Canon",
		"id":"Capture",
		"inputs":["Phototool"]
	},
	{
		"type":"Phototool",
		"inputs":["Capture","Greenscreen"]
	},
	{
		"type":"Greenscreen",
		"inputs":["Phototool"]
	},
	{
		"type":"PictureExporter",
		"inputs":["Phototool"]
	},
	{
		"type":"PhototoolLighting",
		"inputs":["Phototool"]
	}
]