[
	{
		"type":"Webcam",
		"id":"Capture",
		"inputs":["Phototool","GreenscreenConfig"]
	},
	{
		"type":"Phototool",
		"inputs":["Capture","Greenscreen"]
	},
	{
		"type":"Greenscreen",
		"inputs":["Phototool"]
	},
	{
		"type":"PictureExporter",
		"inputs":["Phototool"]
	},
	{
		"type":"PhototoolLighting",
		"inputs":["Phototool"]
	},
	{
		"type":"GreenscreenConfig",
		"inputs":["Capture"]
	}
]